<?xml version="1.0" encoding="UTF-8"?>
<svg width="16px" height="9px" viewBox="0 0 16 9" version="1.1" xmlns="http://www.w3.org/2000/svg" xmlns:xlink="http://www.w3.org/1999/xlink">
    <!-- Generator: sketchtool 47.1 (45422) - http://www.bohemiancoding.com/sketch -->
    <title>D3B8756B-AE38-41F2-AEAC-3144CDB9F4FE</title>
    <desc>Created with sketchtool.</desc>
    <defs></defs>
    <g id="Assets" stroke="none" stroke-width="1" fill="none" fill-rule="evenodd">
        <g id="KeyCloak-2-0-assets" transform="translate(-98.000000, -407.000000)" fill="#515966">
            <g id="eye-close" transform="translate(98.000000, 403.000000)">
                <path d="M12.2143079,10.518567 C12.092557,10.2564947 11.783497,10.1430081 11.5212643,10.2635145 C11.2602023,10.3851909 11.1454755,10.6940619 11.2660557,10.9561342 L11.7038907,11.9026364 C11.8256416,12.1635387 12.1358722,12.2781953 12.3969343,12.1565189 C12.659167,12.0360124 12.7727231,11.7259716 12.6521429,11.4650692 L12.2143079,10.518567 Z M15.848104,9.42698909 L15.1094039,8.68991075 C14.9057052,8.48633673 14.575573,8.48633673 14.3718744,8.68991075 C14.1681757,8.89348477 14.1681757,9.22458504 14.3718744,9.42698909 L15.1094039,10.1640674 C15.3119318,10.3688114 15.6432347,10.3688114 15.848104,10.1640674 C16.050632,9.96049342 16.050632,9.63056311 15.848104,9.42698909 L15.848104,9.42698909 Z M7.99985366,10.7151213 C7.71186596,10.7151213 7.47890029,10.9479444 7.47890029,11.235756 L7.47890029,12.2793653 C7.47890029,12.5671768 7.71186596,12.8 7.99985366,12.8 C8.28784137,12.8 8.52197772,12.5671768 8.52197772,12.2793653 L8.52197772,11.235756 C8.52197772,10.9479444 8.28784137,10.7151213 7.99985366,10.7151213 L7.99985366,10.7151213 Z M4.52409958,10.2635145 C4.26186687,10.1430081 3.95163621,10.2564947 3.83105599,10.518567 L3.39322102,11.4650692 C3.2726408,11.7259716 3.38619693,12.0360124 3.64842964,12.1565189 C3.90949167,12.2781953 4.21972233,12.1635387 4.34030255,11.9026364 L4.77813752,10.9561342 C4.89988842,10.6940619 4.78516161,10.3851909 4.52409958,10.2635145 L4.52409958,10.2635145 Z M0.891474144,8.68991075 L0.152773967,9.42698909 C-0.0509246557,9.63056311 -0.0509246557,9.96049342 0.152773967,10.1640674 C0.357643271,10.3688114 0.687775522,10.3688114 0.891474144,10.1640674 L1.62900364,9.42698909 C1.83270226,9.22458504 1.83270226,8.89348477 1.62900364,8.68991075 C1.42530502,8.48633673 1.09517277,8.48633673 0.891474144,8.68991075 L0.891474144,8.68991075 Z M14.8682434,5.68075915 C14.1365673,6.8296654 13.152024,7.75042835 11.9157841,8.44187804 C10.6795442,9.13332772 9.37423403,9.47963755 7.99985366,9.47963755 C6.62664398,9.47963755 5.32016316,9.13332772 4.08509393,8.44187804 C2.84885401,7.75042835 1.86431067,6.8296654 1.13263458,5.68075915 C1.02844391,5.50643427 0.97576323,5.33444933 0.97576323,5.16480431 C0.97576323,5.0290883 1.11156231,4.86178321 1.31174889,4.81264466 C1.68636705,4.72021737 1.98020816,5.16480431 1.98020816,5.16480431 C2.67559311,6.18852424 3.54658033,7.00399028 4.59434049,7.61003247 C5.64210064,8.21724464 6.77649125,8.52026573 7.99985366,8.52026573 C9.22321608,8.52026573 10.3587774,8.21724464 11.4065375,7.61003247 C12.4542977,7.00399028 13.3252849,6.18852424 14.0206698,5.16480431 C14.0206698,5.16480431 14.314511,4.72021737 14.6891291,4.81264466 C14.8893157,4.86178321 15.0239441,5.0290883 15.0239441,5.16480431 C15.0239441,5.33444933 14.9712634,5.50643427 14.8682434,5.68075915 L14.8682434,5.68075915 Z" id="Mask"></path>
            </g>
        </g>
    </g>
</svg>